IODS course project
…
Alcohol use vs.age

alc %>% group_by(failures, age) %>% summarise(count = n())

## # A tibble: 21 x 3
## # Groups:   failures [4]
##    failures   age count
##       <int> <int> <int>
##  1        0    15    71
##  2        0    16    93
##  3        0    17    84
##  4        0    18    64
##  5        0    19     3
##  6        0    20     1
##  7        1    15     3
##  8        1    16     8
##  9        1    17     8
## 10        1    18    15
## # ... with 11 more rows
…
